{
  "name": "<%- project_name %>",
  "version": "0.0.0",
  "dependencies": {},
  "devDependencies": {},
  "scripts": {
    "test": "echo \"Error: no test specified\" && exit 1"
  },
  "private": true
}
